Estimating SLDAX Models
…
However, another metric which down-weights words that are highly probable in many topics (e.g., stopwords like “and” or “to”) is the term score. That is, term scores can be interpreted as a measure of uniquely representative a term is for a topic where larger term scores denote terms that have a high probability for a topic and lower probabilities for other topics (i.e., more “unique” to a given topic) and smaller term scores denote terms that are probable in multiple topics (i.e., more “common” to all topics). This is the default metric computed by get_topwords(). Inspecting the top 10 terms for each topic below using term scores, it is now clearer that Topic 1 corresponds with descriptions of course professors, whereas Topic 2 corresponds to course assessment methods such as readings and exams.

get_topwords(beta_hat, 15, docs_vocab$vocab, method = "termscore") %>%
  print(n = 30)
#> # A tibble: 45 × 3
#>    topic word       termscore
#>    <chr> <chr>          <dbl>
#>  1 1     and          0.117  
#>  2 1     the          0.114  
#>  3 1     to           0.0830 
#>  4 1     you          0.0803 
#>  5 1     is           0.0790 
#>  6 1     a            0.0673 
#>  7 1     he           0.0470 
#>  8 1     of           0.0362 
#>  9 1     class        0.0343 
#> 10 1     i            0.0271 
#> 11 1     are          0.0217 
#> 12 1     for          0.0195 
#> 13 1     his          0.0195 
#> 14 1     not          0.0189 
#> 15 1     if           0.0183 
#> 16 2     she          0.0182 
#> 17 2     professor    0.00348
#> 18 2     now          0.00272
#> 19 2     keep         0.00227
#> 20 2     science      0.00221
#> 21 2     offer        0.00203
#> 22 2     instructor   0.00201
#> 23 2     final        0.00165
#> 24 2     found        0.00161
#> 25 2     right        0.00154
#> 26 2     day.         0.00142
#> 27 2     print        0.00120
#> 28 2     mrs.         0.00117
#> 29 2     myself       0.00113
#> 30 2     able         0.00112
#> # … with 15 more rows
…
To fit an SLDAX model where the latent topics along with covariates are used to model an outcome, we need to further specify the regression model for the covariates of interest (the topics are automatically entered into the model additively). We also need to specify a data frame data containing the covariates and outcome of interest. Be careful to ensure that this is the same set of observations for which documents were provided previously. Missing data imputation methods for missing documents, covariates, or outcomes are currently not implemented. Only complete data can be analyzed. We also change the model to be estimated to model = "sldax".

set.seed(44680835)
fit_sldax <- gibbs_sldax(rating ~ I(grade - 1), data = teacher_rate,
                         m = 450, burn = 300, thin = 1,
                         docs = docs_vocab$documents,
                         V = vocab_len,
                         K = 3, model = "sldax", display_progress = TRUE)

Topic proportion and topic–word probabilities can be summarized with the same functions as demonstrated above in the section on LDA. As we saw above for an LDA model, we can interpret the three topics from the SLDAX model using term scores.

get_topwords(est_beta(fit_sldax), 15, docs_vocab$vocab, method = "termscore") %>%
  print(n = 30)
#> # A tibble: 45 × 3
#>    topic word       termscore
#>    <chr> <chr>          <dbl>
#>  1 1     and         0.114   
#>  2 1     the         0.107   
#>  3 1     to          0.0877  
#>  4 1     is          0.0744  
#>  5 1     you         0.0743  
#>  6 1     a           0.0681  
#>  7 1     he          0.0487  
#>  8 1     class       0.0365  
#>  9 1     of          0.0350  
#> 10 1     i           0.0262  
#> 11 1     are         0.0204  
#> 12 1     not         0.0201  
#> 13 1     his         0.0189  
#> 14 1     if          0.0186  
#> 15 1     very        0.0181  
#> 16 2     less        0.00190 
#> 17 2     ton         0.00161 
#> 18 2     success.    0.00125 
#> 19 2     guy         0.00118 
#> 20 2     able        0.00110 
#> 21 2     print       0.00105 
#> 22 2     enjoyable   0.00105 
#> 23 2     funny,      0.000992
#> 24 2     pop         0.000983
#> 25 2     instructor  0.000959
#> 26 2     right       0.000927
#> 27 2     caring,     0.000905
#> 28 2     slow        0.000898
#> 29 2     can't       0.000883
#> 30 2     spanish     0.000875
#> # … with 15 more rows
…
